<svg xmlns="http://www.w3.org/2000/svg" viewBox="0 -0.5 32 32" shape-rendering="crispEdges">
<metadata>Made with Pixels to Svg https://codepen.io/shshaw/pen/XbxvNj</metadata>
<path stroke="#733e39" d="M16 3h3M15 4h1M19 4h1M15 5h1M19 5h1M13 6h2M20 6h1M12 7h1M20 7h1M11 8h1M21 8h1M9 9h2M21 9h1M4 10h2M7 10h2M22 10h1M2 11h2M6 11h1M23 11h1M1 12h1M24 12h1M2 13h1M25 13h1M3 14h1M26 14h1M4 15h1M27 15h1M5 16h1M28 16h2M6 17h1M30 17h2M6 18h1M31 18h1M6 19h1M29 19h2M6 20h1M27 20h2M7 21h1M25 21h2M7 22h1M21 22h4M8 23h1M22 23h1M9 24h1M19 24h3M10 25h2M17 25h2M12 26h1M15 26h2M12 27h3" />
<path stroke="#ead4aa" d="M16 4h3M16 5h3M15 6h3M19 6h1M13 7h2M16 7h1M18 7h2M12 8h2M15 8h1M17 8h1M19 8h2M11 9h2M14 9h1M16 9h1M18 9h1M20 9h1M9 10h9M19 10h3M5 11h1M7 11h16M2 12h13M16 12h1M18 12h1M20 12h3M3 13h2M6 13h1M8 13h5M14 13h7M22 13h1M4 14h20M5 15h3M9 15h3M13 15h8M22 15h3M6 16h4M11 16h4M18 16h6M7 17h13M21 17h3M7 18h5M17 18h1M19 18h6M7 19h3M12 19h1M15 19h11M7 20h2M11 20h7M19 20h5M8 21h8M17 21h7M8 22h6M15 22h6M9 23h4M16 23h6M10 24h4M15 24h4M12 25h5M13 26h2" />
<path stroke="#3e8948" d="M18 6h1M15 7h1M17 7h1M14 8h1M16 8h1M18 8h1M13 9h1M15 9h1M17 9h1M19 9h1M18 10h1" />
<path stroke="#a22633" d="M4 11h1M15 12h1M17 12h1M19 12h1M5 13h1M7 13h1M13 13h1M21 13h1M8 15h1M12 15h1M21 15h1M10 16h1M20 17h1M18 18h1M18 20h1M16 21h1M14 22h1M13 23h3M14 24h1" />
<path stroke="#124e89" d="M23 12h1M23 13h2M24 14h2M25 15h2M24 16h4M24 17h6M25 18h6M26 19h3M24 20h3M24 21h1" />
<path stroke="#3e2731" d="M15 16h3M12 18h5M10 19h2M13 19h2M9 20h2" />
</svg>