<svg xmlns="http://www.w3.org/2000/svg" viewBox="0 -0.5 32 32" shape-rendering="crispEdges">
<metadata>Made with Pixels to Svg https://codepen.io/shshaw/pen/XbxvNj</metadata>
<path stroke="#000000" d="M22 6h3M21 7h1M24 7h1M20 8h1M24 8h1M19 9h1M23 9h1M18 10h1M22 10h1M17 11h1M21 11h1M16 12h1M20 12h1M15 13h1M19 13h1M14 14h1M18 14h1M10 15h4M17 15h1M10 16h1M13 16h1M16 16h1M11 17h1M13 17h3M11 18h2M15 18h1M10 19h1M12 19h2M15 19h1M9 20h1M11 20h1M14 20h2M7 21h2M10 21h1M7 22h1M9 22h1M7 23h3" />
<path stroke="#ffffff" d="M22 7h1M21 8h1M20 9h1M19 10h1M18 11h1M17 12h1M16 13h1M15 14h1M14 15h1" />
<path stroke="#89bdd9" d="M23 7h1M22 8h1M21 9h1M20 10h1M19 11h1M18 12h1M17 13h1M16 14h1M15 15h1M14 16h1" />
<path stroke="#c0cbdc" d="M23 8h1M22 9h1M21 10h1M20 11h1M19 12h1M18 13h1M17 14h1M16 15h1M15 16h1" />
<path stroke="#feae34" d="M11 16h2M12 17h1M13 18h2M14 19h1" />
<path stroke="#733e39" d="M11 19h1M10 20h1M9 21h1" />
<path stroke="#a22633" d="M8 22h1" />
</svg>